<?xml version="1.0" encoding="UTF-8"?>
<!DOCTYPE svg PUBLIC "-//W3C//DTD SVG 1.1//EN" "http://www.w3.org/Graphics/SVG/1.1/DTD/svg11.dtd">
<!-- Creator: CorelDRAW 2018 (64 Bit) -->
<svg xmlns="http://www.w3.org/2000/svg" xml:space="preserve" width="16px" height="16px" version="1.1" style="shape-rendering:geometricPrecision; text-rendering:geometricPrecision; image-rendering:optimizeQuality; fill-rule:evenodd; clip-rule:evenodd"
viewBox="0 0 0.202 0.202"
 xmlns:xlink="http://www.w3.org/1999/xlink">
 <defs>
  <style type="text/css">
   <![CDATA[
    .fil0 {fill:#FFF}
   ]]>
  </style>
 </defs>
 <g id="Camada_x0020_1">
  <metadata id="CorelCorpID_0Corel-Layer"/>
  <path class="fil0" d="M0.025 0l0.152 0c0.014,0 0.025,0.011 0.025,0.025l0 0.152c0,0.014 -0.011,0.025 -0.025,0.025l-0.152 0c-0.014,0 -0.025,-0.011 -0.025,-0.025l0 -0.152c0,-0.014 0.011,-0.025 0.025,-0.025zm0.122 0.188l0 0 -0.032 0 0 -0.079 -0.016 0 0 -0.027 0.016 0 0 -0.016c0,-0.022 0.009,-0.035 0.035,-0.035l0.022 0 0 0.027 -0.014 0c-0.01,0 -0.011,0.004 -0.011,0.011l0 0.013 0.025 0 -0.003 0.027 -0.022 0 0 0.079z"/>
 </g>
</svg>
