<?xml version="1.0" encoding="UTF-8"?>
<!DOCTYPE svg PUBLIC "-//W3C//DTD SVG 1.1//EN" "http://www.w3.org/Graphics/SVG/1.1/DTD/svg11.dtd">
<!-- Creator: CorelDRAW 2018 (64 Bit) -->
<svg xmlns="http://www.w3.org/2000/svg" xml:space="preserve" width="120px" height="120px" version="1.1" style="shape-rendering:geometricPrecision; text-rendering:geometricPrecision; image-rendering:optimizeQuality; fill-rule:evenodd; clip-rule:evenodd"
viewBox="0 0 1.361 1.361"
 xmlns:xlink="http://www.w3.org/1999/xlink">
 <defs>
  <style type="text/css">
   <![CDATA[
    .fil0 {fill:white;fill-rule:nonzero}
   ]]>
  </style>
 </defs>
 <g id="Camada_x0020_1">
  <metadata id="CorelCorpID_0Corel-Layer"/>
  <g id="_1791133465968">
   <path class="fil0" d="M0.462 0.402c-0.019,-0.036 -0.03,-0.077 -0.03,-0.12 0,-0.137 0.111,-0.249 0.249,-0.249 0.137,0 0.249,0.112 0.249,0.249 0,0.044 -0.012,0.085 -0.031,0.12 -0.006,-0.011 -0.016,-0.02 -0.029,-0.024l-0.138 -0.039 0.02 -0.014c0.021,-0.014 0.034,-0.037 0.034,-0.063l0 -0.116c0,-0.025 -0.021,-0.046 -0.046,-0.046l-0.118 0c-0.026,0 -0.046,0.021 -0.046,0.046l0 0.116c0,0.026 0.012,0.049 0.033,0.063l0.02 0.014 -0.139 0.039c-0.013,0.004 -0.022,0.013 -0.028,0.024zm0.195 -0.085l-0.029 -0.019c-0.012,-0.008 -0.019,-0.021 -0.019,-0.036l0 -0.116c0,-0.007 0.006,-0.012 0.013,-0.012l0.118 0c0.007,0 0.013,0.005 0.013,0.012l0 0.116c0,0.015 -0.007,0.028 -0.019,0.036l-0.03 0.019c-0.014,0.01 -0.033,0.01 -0.047,0zm0.213 0.126c-0.045,0.054 -0.113,0.088 -0.189,0.088 -0.077,0 -0.145,-0.034 -0.191,-0.088l0 -0.021c0,-0.005 0.004,-0.01 0.01,-0.012l0.18 -0.052 0.18 0.052c0.006,0.001 0.01,0.007 0.01,0.012l0 0.021zm-0.189 0.121c0.155,0 0.282,-0.126 0.282,-0.282 0,-0.155 -0.127,-0.282 -0.282,-0.282 -0.156,0 -0.282,0.127 -0.282,0.282 0,0.156 0.126,0.282 0.282,0.282z"/>
   <path class="fil0" d="M0.064 1.198c-0.02,-0.035 -0.031,-0.076 -0.031,-0.119 0,-0.137 0.112,-0.249 0.249,-0.249 0.137,0 0.249,0.112 0.249,0.249 0,0.044 -0.011,0.084 -0.031,0.12 -0.005,-0.011 -0.015,-0.02 -0.028,-0.024l-0.138 -0.039 0.02 -0.014c0.021,-0.014 0.033,-0.037 0.033,-0.063l0 -0.116c0,-0.025 -0.02,-0.046 -0.046,-0.046l-0.118 0c-0.025,0 -0.046,0.021 -0.046,0.046l0 0.116c0,0.026 0.013,0.049 0.034,0.063l0.019 0.013 -0.139 0.04c-0.012,0.004 -0.022,0.013 -0.027,0.023zm0.195 -0.084l-0.03 -0.019c-0.012,-0.008 -0.019,-0.021 -0.019,-0.036l0 -0.116c0,-0.007 0.006,-0.013 0.013,-0.013l0.118 0c0.007,0 0.013,0.006 0.013,0.013l0 0.116c0,0.015 -0.007,0.028 -0.019,0.036l-0.029 0.019c-0.015,0.01 -0.033,0.01 -0.047,0zm0.213 0.126c-0.046,0.054 -0.114,0.088 -0.19,0.088 -0.076,0 -0.144,-0.034 -0.19,-0.089l0 -0.02c0,-0.006 0.004,-0.011 0.009,-0.012l0.181 -0.052 0.18 0.051c0.006,0.002 0.01,0.007 0.01,0.013l0 0.021zm-0.19 0.121c0.156,0 0.282,-0.126 0.282,-0.282 0,-0.155 -0.126,-0.282 -0.282,-0.282 -0.155,0 -0.282,0.127 -0.282,0.282 0,0.156 0.127,0.282 0.282,0.282z"/>
   <path class="fil0" d="M1.297 1.199c-0.005,-0.011 -0.015,-0.02 -0.028,-0.024l-0.138 -0.039 0.02 -0.014c0.021,-0.014 0.033,-0.037 0.033,-0.063l0 -0.116c0,-0.025 -0.02,-0.046 -0.046,-0.046l-0.118 0c-0.025,0 -0.046,0.021 -0.046,0.046l0 0.116c0,0.026 0.013,0.049 0.034,0.063l0.019 0.013 -0.139 0.04c-0.012,0.004 -0.022,0.013 -0.027,0.023 -0.02,-0.035 -0.031,-0.076 -0.031,-0.119 0,-0.137 0.112,-0.249 0.249,-0.249 0.137,0 0.249,0.112 0.249,0.249 0,0.044 -0.011,0.084 -0.031,0.12zm-0.241 -0.085l-0.03 -0.019c-0.012,-0.008 -0.019,-0.021 -0.019,-0.036l0 -0.116c0,-0.007 0.006,-0.013 0.013,-0.013l0.118 0c0.007,0 0.013,0.006 0.013,0.013l0 0.116c0,0.015 -0.007,0.028 -0.019,0.036l-0.029 0.019c-0.015,0.01 -0.033,0.01 -0.047,0zm0.213 0.126c-0.046,0.054 -0.114,0.088 -0.19,0.088 -0.076,0 -0.144,-0.034 -0.19,-0.089l0 -0.02c0,-0.006 0.004,-0.011 0.009,-0.012l0.181 -0.052 0.18 0.051c0.006,0.002 0.01,0.007 0.01,0.013l0 0.021zm-0.19 -0.443c-0.155,0 -0.282,0.127 -0.282,0.282 0,0.156 0.127,0.282 0.282,0.282 0.156,0 0.282,-0.126 0.282,-0.282 0,-0.155 -0.126,-0.282 -0.282,-0.282z"/>
   <path class="fil0" d="M0.598 1.079c0,0.009 0.007,0.017 0.016,0.017l0.133 0c0.009,0 0.017,-0.008 0.017,-0.017 0,-0.009 -0.008,-0.016 -0.017,-0.016l-0.133 0c-0.009,0 -0.016,0.007 -0.016,0.016z"/>
   <path class="fil0" d="M0.62 0.6l-0.152 0.204c-0.005,0.007 -0.004,0.017 0.004,0.023 0.007,0.005 0.017,0.004 0.023,-0.003l0.152 -0.204c0.005,-0.007 0.004,-0.017 -0.003,-0.023 -0.008,-0.005 -0.018,-0.004 -0.024,0.003z"/>
   <path class="fil0" d="M0.89 0.827c0.007,-0.006 0.009,-0.016 0.003,-0.023l-0.152 -0.204c-0.005,-0.007 -0.016,-0.008 -0.023,-0.003 -0.007,0.006 -0.009,0.016 -0.003,0.023l0.152 0.204c0.005,0.007 0.016,0.008 0.023,0.003z"/>
  </g>
 </g>
</svg>
