<?xml version="1.0" encoding="UTF-8"?>
<!DOCTYPE svg PUBLIC "-//W3C//DTD SVG 1.1//EN" "http://www.w3.org/Graphics/SVG/1.1/DTD/svg11.dtd">
<!-- Creator: CorelDRAW 2018 (64 Bit) -->
<svg xmlns="http://www.w3.org/2000/svg" xml:space="preserve" width="50px" height="50px" version="1.1" style="shape-rendering:geometricPrecision; text-rendering:geometricPrecision; image-rendering:optimizeQuality; fill-rule:evenodd; clip-rule:evenodd"
viewBox="0 0 0.235 0.235"
 xmlns:xlink="http://www.w3.org/1999/xlink">
 <defs>
  <style type="text/css">
   <![CDATA[
    .fil0 {fill:white;fill-rule:nonzero}
   ]]>
  </style>
 </defs>
 <g id="Camada_x0020_1">
  <metadata id="CorelCorpID_0Corel-Layer"/>
  <g id="_2011017653360">
   <path class="fil0" d="M0.171 0.126l-0.009 0c-0.002,0 -0.003,0.001 -0.003,0.002 -0.001,0.004 -0.003,0.008 -0.005,0.011 0,0.001 0,0.003 0.001,0.004l0.007 0.006c-0.004,0.005 -0.008,0.009 -0.013,0.013l-0.006 -0.007c-0.001,-0.001 -0.003,-0.001 -0.004,-0.001 -0.003,0.002 -0.007,0.004 -0.011,0.005 -0.001,0 -0.002,0.001 -0.002,0.003l0 0.009c-0.005,0.001 -0.012,0.001 -0.017,0l0 -0.009c0,-0.002 -0.001,-0.003 -0.002,-0.003 -0.004,-0.001 -0.008,-0.003 -0.011,-0.005 -0.001,0 -0.003,0 -0.004,0.001l-0.007 0.007c-0.004,-0.004 -0.008,-0.008 -0.012,-0.013l0.007 -0.006c0.001,-0.001 0.001,-0.003 0,-0.004 -0.002,-0.003 -0.003,-0.007 -0.004,-0.011 0,-0.001 -0.002,-0.002 -0.003,-0.002l-0.009 0c-0.001,-0.005 -0.001,-0.013 0,-0.017l0.009 0c0.001,0 0.003,-0.001 0.003,-0.002 0.001,-0.004 0.002,-0.008 0.004,-0.011 0.001,-0.001 0.001,-0.003 0,-0.004l-0.007 -0.007c0.004,-0.004 0.008,-0.008 0.012,-0.012l0.007 0.007c0.001,0.001 0.003,0.001 0.004,0 0.003,-0.002 0.007,-0.003 0.011,-0.004 0.001,0 0.002,-0.002 0.002,-0.003l0 -0.009c0.005,-0.001 0.012,-0.001 0.017,0l0 0.009c0,0.001 0.001,0.003 0.002,0.003 0.004,0.001 0.008,0.002 0.011,0.004 0.001,0.001 0.003,0.001 0.004,0l0.006 -0.007c0.005,0.004 0.009,0.008 0.013,0.012l-0.007 0.007c-0.001,0.001 -0.001,0.003 -0.001,0.004 0.002,0.003 0.004,0.007 0.005,0.011 0,0.001 0.001,0.002 0.003,0.002l0.009 0c0.001,0.005 0.001,0.012 0,0.017zm0.003 -0.023l-0.01 0c-0.001,-0.003 -0.002,-0.006 -0.004,-0.008l0.007 -0.007c0.001,-0.001 0.001,-0.003 0.001,-0.004 -0.005,-0.007 -0.011,-0.012 -0.017,-0.017 -0.002,-0.001 -0.003,0 -0.004,0l-0.007 0.007c-0.003,-0.001 -0.005,-0.002 -0.008,-0.003l0 -0.01c0,-0.001 -0.001,-0.002 -0.003,-0.003 -0.007,-0.001 -0.016,-0.001 -0.024,0 -0.001,0.001 -0.002,0.002 -0.002,0.003l0 0.01c-0.003,0.001 -0.006,0.002 -0.008,0.003l-0.007 -0.007c-0.001,0 -0.003,-0.001 -0.004,0 -0.007,0.005 -0.012,0.01 -0.017,0.017 -0.001,0.001 0,0.003 0,0.004l0.007 0.007c-0.001,0.002 -0.002,0.005 -0.003,0.008l-0.01 0c-0.001,0 -0.002,0.001 -0.003,0.002 -0.001,0.007 -0.001,0.017 0,0.024 0.001,0.002 0.002,0.003 0.003,0.003l0.01 0c0.001,0.003 0.002,0.005 0.003,0.008l-0.007 0.007c0,0.001 -0.001,0.002 0,0.004 0.005,0.006 0.01,0.012 0.017,0.017 0.001,0 0.003,0 0.004,-0.001l0.007 -0.007c0.002,0.002 0.005,0.003 0.008,0.004l0 0.01c0,0.001 0.001,0.002 0.002,0.002 0.007,0.002 0.017,0.002 0.024,0 0.002,0 0.003,-0.001 0.003,-0.002l0 -0.01c0.003,-0.001 0.005,-0.002 0.008,-0.004l0.007 0.007c0.001,0.001 0.002,0.001 0.004,0.001 0.006,-0.005 0.012,-0.011 0.017,-0.017 0,-0.002 0,-0.003 -0.001,-0.004l-0.007 -0.007c0.002,-0.003 0.003,-0.005 0.004,-0.008l0.01 0c0.001,0 0.002,-0.001 0.002,-0.003 0.002,-0.007 0.002,-0.015 0,-0.024 0,-0.001 -0.001,-0.002 -0.002,-0.002z"/>
   <path class="fil0" d="M0.117 0.143c-0.014,0 -0.025,-0.011 -0.025,-0.026 0,-0.014 0.011,-0.025 0.025,-0.025 0.015,0 0.026,0.011 0.026,0.025 0,0.015 -0.011,0.026 -0.026,0.026zm0 -0.057c-0.017,0 -0.031,0.014 -0.031,0.031 0,0.018 0.014,0.032 0.031,0.032 0.018,0 0.032,-0.014 0.032,-0.032 0,-0.017 -0.014,-0.031 -0.032,-0.031z"/>
   <path class="fil0" d="M0.213 0.086c-0.002,0 -0.003,0.001 -0.003,0.003l0 0.026 -0.024 0c-0.001,0 -0.003,0.001 -0.003,0.002 0,0.002 0.002,0.003 0.003,0.003l0.024 0 0 0.023c-0.011,0.002 -0.019,0.011 -0.019,0.022 0,0.011 0.008,0.02 0.019,0.022l0 0.023 -0.026 0c-0.001,0 -0.003,0.001 -0.003,0.003 0,0.009 -0.007,0.016 -0.016,0.016 -0.009,0 -0.016,-0.007 -0.016,-0.016 0,-0.002 -0.001,-0.003 -0.003,-0.003l-0.026 0 0 -0.024c0,-0.001 -0.001,-0.003 -0.003,-0.003 -0.001,0 -0.002,0.002 -0.002,0.003l0 0.024 -0.024 0c-0.001,-0.011 -0.01,-0.019 -0.021,-0.019 -0.011,0 -0.021,0.008 -0.022,0.019l-0.023 0 0 -0.026c0,-0.001 -0.001,-0.003 -0.003,-0.003 -0.009,0 -0.016,-0.007 -0.016,-0.016 0,-0.009 0.007,-0.016 0.016,-0.016 0.002,0 0.003,-0.001 0.003,-0.003l0 -0.026 0.024 0c0.001,0 0.003,-0.001 0.003,-0.003 0,-0.001 -0.002,-0.002 -0.003,-0.002l-0.024 0 0 -0.024c0.011,-0.001 0.019,-0.01 0.019,-0.021 0,-0.011 -0.008,-0.021 -0.019,-0.022l0 -0.023 0.026 0c0.001,0 0.002,-0.001 0.002,-0.003 0,-0.009 0.008,-0.016 0.017,-0.016 0.009,0 0.016,0.007 0.016,0.016 0,0.002 0.001,0.003 0.003,0.003l0.026 0 0 0.024c0,0.001 0.001,0.003 0.002,0.003 0.002,0 0.003,-0.002 0.003,-0.003l0 -0.024 0.023 0c0.002,0.011 0.011,0.019 0.022,0.019 0.011,0 0.02,-0.008 0.022,-0.019l0.023 0 0 0.026c0,0.001 0.001,0.002 0.003,0.002 0.009,0 0.016,0.008 0.016,0.017 0,0.009 -0.007,0.016 -0.016,0.016zm0.003 -0.038l0 -0.026c0,-0.002 -0.002,-0.003 -0.003,-0.003l-0.029 0c-0.001,0 -0.003,0.001 -0.003,0.003 0,0.009 -0.007,0.016 -0.016,0.016 -0.009,0 -0.016,-0.007 -0.016,-0.016 0,-0.002 -0.001,-0.003 -0.003,-0.003l-0.055 0c-0.001,-0.011 -0.01,-0.019 -0.021,-0.019 -0.011,0 -0.021,0.008 -0.022,0.019l-0.026 0c-0.002,0 -0.003,0.001 -0.003,0.003l0 0.029c0,0.001 0.001,0.002 0.003,0.002 0.009,0 0.016,0.008 0.016,0.017 0,0.009 -0.007,0.016 -0.016,0.016 -0.002,0 -0.003,0.001 -0.003,0.003l0 0.054c-0.011,0.002 -0.019,0.011 -0.019,0.022 0,0.011 0.008,0.02 0.019,0.022l0 0.026c0,0.001 0.001,0.003 0.003,0.003l0.029 0c0.001,0 0.002,-0.002 0.002,-0.003 0,-0.009 0.008,-0.016 0.017,-0.016 0.009,0 0.016,0.007 0.016,0.016 0,0.001 0.001,0.003 0.003,0.003l0.054 0c0.002,0.01 0.011,0.019 0.022,0.019 0.011,0 0.02,-0.009 0.022,-0.019l0.026 0c0.001,0 0.003,-0.002 0.003,-0.003l0 -0.029c0,-0.001 -0.002,-0.003 -0.003,-0.003 -0.009,0 -0.016,-0.007 -0.016,-0.016 0,-0.009 0.007,-0.016 0.016,-0.016 0.001,0 0.003,-0.001 0.003,-0.003l0 -0.055c0.01,-0.001 0.019,-0.01 0.019,-0.021 0,-0.011 -0.009,-0.021 -0.019,-0.022z"/>
   <path class="fil0" d="M0.129 0.115l-0.009 0 0 -0.009c0,-0.002 -0.001,-0.003 -0.003,-0.003 -0.001,0 -0.002,0.001 -0.002,0.003l0 0.009 -0.009 0c-0.002,0 -0.003,0.001 -0.003,0.002 0,0.002 0.001,0.003 0.003,0.003l0.009 0 0 0.009c0,0.001 0.001,0.003 0.002,0.003 0.002,0 0.003,-0.002 0.003,-0.003l0 -0.009 0.009 0c0.001,0 0.003,-0.001 0.003,-0.003 0,-0.001 -0.002,-0.002 -0.003,-0.002z"/>
  </g>
 </g>
</svg>
