<?xml version="1.0" encoding="UTF-8"?>
<!DOCTYPE svg PUBLIC "-//W3C//DTD SVG 1.1//EN" "http://www.w3.org/Graphics/SVG/1.1/DTD/svg11.dtd">
<!-- Creator: CorelDRAW 2018 (64 Bit) -->
<svg xmlns="http://www.w3.org/2000/svg" xml:space="preserve" width="80px" height="80px" version="1.1" style="shape-rendering:geometricPrecision; text-rendering:geometricPrecision; image-rendering:optimizeQuality; fill-rule:evenodd; clip-rule:evenodd"
viewBox="0 0 9.412 9.409"
 xmlns:xlink="http://www.w3.org/1999/xlink">
 <defs>
  <style type="text/css">
   <![CDATA[
    .fil0 {fill:#FFF}
    .fil1 {fill:#FFF}
   ]]>
  </style>
 </defs>
 <g id="Camada_x0020_1">
  <metadata id="CorelCorpID_0Corel-Layer"/>
  <g id="_1791137223648">
   <path class="fil0" d="M3.125 6.13c0.148,0.093 0.259,0.234 0.315,0.399l0.037 0.405 0 0.445c0.001,0.222 0.12,0.427 0.312,0.538l0 0.867c0,0.345 0.28,0.625 0.625,0.625l0.625 0c0.345,0 0.624,-0.28 0.624,-0.625l0 -0.867c0.193,-0.111 0.312,-0.316 0.313,-0.538l0 -0.618c0.004,-0.26 0.14,-0.5 0.361,-0.638 0.13,-0.084 0.252,-0.178 0.368,-0.281l-0.209 -0.232c-0.103,0.092 -0.213,0.176 -0.329,0.251 -0.31,0.195 -0.5,0.534 -0.504,0.9l0 0.618c0,0.172 -0.139,0.312 -0.312,0.312l-1.249 0c-0.173,0 -0.313,-0.14 -0.313,-0.312l0 -0.631c-0.003,-0.359 -0.19,-0.692 -0.495,-0.882 -1.238,-0.777 -1.611,-2.411 -0.833,-3.649 0.483,-0.768 1.325,-1.236 2.232,-1.239l0.335 -0.296c-0.212,-0.023 -0.427,-0.023 -0.639,0 -1.39,0.159 -2.481,1.268 -2.616,2.661 -0.021,0.218 0.007,0.482 0.017,0.704 0.117,0.836 0.628,1.625 1.335,2.083zm0.977 1.874l1.249 0 0 0.312 -1.249 0 0 -0.312zm0 0.624l1.249 0 0 0.156c0,0.173 -0.14,0.313 -0.312,0.313l-0.625 0c-0.173,0 -0.312,-0.14 -0.312,-0.313l0 -0.156z"/>
   <path class="fil1" d="M6.715 1.486c-0.69,0 -1.249,0.559 -1.249,1.249 0,0.69 0.559,1.249 1.249,1.249 0.69,0 1.25,-0.559 1.25,-1.249 -0.001,-0.69 -0.56,-1.249 -1.25,-1.249zm0 2.186c-0.517,0 -0.937,-0.419 -0.937,-0.937 0,-0.517 0.42,-0.937 0.937,-0.937 0.518,0 0.937,0.42 0.937,0.937 0,0.517 -0.419,0.936 -0.937,0.937z"/>
   <g>
    <g>
     <rect class="fil0" x="4.57" y="6.91" width="0.312" height="0.469"/>
    </g>
   </g>
   <g>
    <g>
     <path class="fil0" d="M4.043 5.377c-0.964,-0.377 -1.44,-1.464 -1.063,-2.428 0.146,-0.373 0.407,-0.69 0.747,-0.904l-0.167 -0.264c-1.022,0.643 -1.328,1.993 -0.685,3.015 0.25,0.396 0.619,0.701 1.055,0.871 0.385,0.148 0.64,0.518 0.64,0.931l0.313 0c0,-0.542 -0.334,-1.028 -0.84,-1.221z"/>
    </g>
   </g>
   <g>
    <g>
     <rect class="fil0" x="7.694" y="5.817" width="1.093" height="0.312"/>
    </g>
   </g>
   <g>
    <g>
     <rect class="fil0" transform="matrix(0.0474147 -0.056911 0.056911 0.0474147 7.43749 6.8741)" width="4.217" height="16.466"/>
    </g>
   </g>
   <g>
    <g>
     <rect class="fil0" x="6.757" y="7.067" width="0.312" height="1.093"/>
    </g>
   </g>
   <g>
    <g>
     <rect class="fil0" transform="matrix(0.0718591 -0.0179629 0.0179629 0.0718591 0.159485 2.69831)" width="17.385" height="4.215"/>
    </g>
   </g>
   <g>
    <g>
     <rect class="fil0" transform="matrix(0.0430517 -0.060274 0.0602739 0.0430518 0.418907 1.10306)" width="4.215" height="18.136"/>
    </g>
   </g>
   <g>
    <g>
     <rect class="fil0" transform="matrix(0.0717628 -0.0183481 0.0183481 0.0717628 1.75699 0.0773643)" width="4.217" height="17.408"/>
    </g>
   </g>
   <path class="fil1" d="M2.858 5.935l-0.242 -0.22c-0.117,0.324 -0.474,0.492 -0.798,0.376 -0.324,-0.117 -0.493,-0.474 -0.376,-0.798 0.089,-0.248 0.325,-0.413 0.588,-0.413 0.002,0 0.004,0 0.006,0l-0.122 -0.304c-0.514,0.062 -0.881,0.528 -0.819,1.042 0.061,0.514 0.527,0.881 1.041,0.819 0.309,-0.037 0.58,-0.225 0.722,-0.502zm0.619 0.999l-0.037 -0.405 -0.335 0.335 -0.324 -0.224c-0.142,-0.098 -0.337,-0.062 -0.435,0.08 -0.023,0.034 -0.04,0.072 -0.048,0.113l-0.082 0.39 -0.371 0 -0.082 -0.39c-0.036,-0.168 -0.201,-0.276 -0.37,-0.241 -0.041,0.009 -0.079,0.025 -0.113,0.049l-0.325 0.223 -0.284 -0.284 0.223 -0.325c0.098,-0.142 0.063,-0.336 -0.079,-0.434 -0.034,-0.024 -0.073,-0.04 -0.113,-0.049l-0.39 -0.082 0 -0.371 0.39 -0.082c0.168,-0.035 0.276,-0.201 0.24,-0.37 -0.008,-0.04 -0.024,-0.078 -0.047,-0.112l-0.224 -0.325 0.284 -0.284 0.325 0.224c0.142,0.098 0.337,0.062 0.435,-0.08 0.023,-0.034 0.039,-0.073 0.048,-0.113l0.027 -0.13 -0.025 -0.572 -0.047 0c-0.074,0 -0.138,0.052 -0.153,0.125l-0.108 0.513 -0.432 -0.298c-0.062,-0.043 -0.146,-0.036 -0.199,0.018l-0.468 0.468c-0.054,0.054 -0.061,0.137 -0.019,0.199l0.297 0.432 -0.513 0.108c-0.072,0.015 -0.123,0.079 -0.123,0.153l0 0.624c0,0.074 0.052,0.138 0.124,0.153l0.513 0.108 -0.296 0.431c-0.043,0.063 -0.035,0.146 0.018,0.199l0.468 0.469c0.054,0.053 0.137,0.061 0.199,0.018l0.432 -0.297 0.108 0.513c0.015,0.073 0.078,0.125 0.153,0.125l0.624 0c0.074,0 0.138,-0.052 0.153,-0.124l0.108 -0.513 0.431 0.296c0.063,0.043 0.146,0.035 0.199,-0.018l0.243 -0.243zm1.551 -6.252l-0.335 0.296c-0.003,0.006 -0.005,0.011 -0.006,0.017 -0.006,0.041 0.005,0.083 0.03,0.116l0.368 0.491c0.038,0.05 0.042,0.119 0.009,0.173 -0.032,0.055 -0.094,0.084 -0.156,0.075l-0.608 -0.087c-0.085,-0.012 -0.164,0.048 -0.176,0.133 0,0 0,0 0,0l-0.133 0.928c-0.012,0.085 0.047,0.164 0.132,0.176 0,0 0,0 0.001,0l0.607 0.087c0.085,0.012 0.145,0.091 0.133,0.177 -0.006,0.041 -0.028,0.078 -0.061,0.103l-0.491 0.368c-0.069,0.052 -0.083,0.149 -0.031,0.218l0.562 0.75c0.052,0.069 0.149,0.083 0.218,0.031l0.491 -0.368c0.07,-0.051 0.167,-0.037 0.219,0.032 0.025,0.033 0.035,0.074 0.03,0.115l-0.087 0.608c-0.012,0.085 0.047,0.164 0.132,0.176 0,0 0,0 0,0l0.928 0.133c0.007,0.001 0.015,0.001 0.022,0.001 0.078,0.001 0.144,-0.057 0.155,-0.134l0.086 -0.607c0.013,-0.085 0.092,-0.145 0.177,-0.133 0.041,0.006 0.078,0.028 0.103,0.061l0.368 0.491c0.052,0.069 0.15,0.083 0.219,0.031l0.75 -0.562c0.069,-0.052 0.083,-0.149 0.031,-0.218l-0.368 -0.491c-0.039,-0.051 -0.043,-0.12 -0.01,-0.174 0.032,-0.055 0.094,-0.085 0.156,-0.075l0.608 0.087c0.085,0.012 0.165,-0.047 0.177,-0.132 0,0 0,0 0,0l0.132 -0.928c0.012,-0.085 -0.047,-0.165 -0.132,-0.177 0,0 0,0 0,0l-0.001 0 -0.607 -0.087c-0.085,-0.012 -0.145,-0.091 -0.133,-0.176 0.006,-0.041 0.028,-0.078 0.061,-0.103l0.491 -0.369c0.069,-0.051 0.083,-0.149 0.032,-0.218l-0.563 -0.75c-0.051,-0.069 -0.149,-0.083 -0.218,-0.031l-0.491 0.368c-0.069,0.052 -0.167,0.039 -0.219,-0.03 -0.025,-0.033 -0.036,-0.075 -0.03,-0.117l0.087 -0.607c0.012,-0.086 -0.047,-0.165 -0.133,-0.177 0,0 0,0 0,0l-0.927 -0.133c-0.085,-0.012 -0.164,0.047 -0.177,0.133 0,0 0,0 0,0l-0.087 0.607c-0.012,0.086 -0.091,0.145 -0.176,0.133 -0.041,-0.006 -0.078,-0.028 -0.103,-0.061l-0.368 -0.491c-0.052,-0.069 -0.15,-0.083 -0.219,-0.031l-0.469 0.352zm3.962 2.693l-0.453 -0.064c-0.256,-0.037 -0.494,0.141 -0.53,0.397 -0.018,0.123 0.014,0.248 0.089,0.348l0.274 0.366 -0.499 0.374 -0.275 -0.365c-0.155,-0.207 -0.449,-0.249 -0.656,-0.094 -0.099,0.074 -0.165,0.185 -0.183,0.308l-0.063 0.454 -0.618 -0.089 0.064 -0.452c0.037,-0.257 -0.141,-0.494 -0.397,-0.531 -0.123,-0.017 -0.248,0.015 -0.347,0.089l-0.366 0.275 -0.375 -0.5 0.366 -0.275c0.207,-0.155 0.249,-0.448 0.093,-0.655 -0.074,-0.1 -0.185,-0.166 -0.308,-0.183l-0.453 -0.065 0.088 -0.618 0.453 0.065c0.256,0.036 0.494,-0.142 0.53,-0.398 0.018,-0.123 -0.014,-0.248 -0.089,-0.347l-0.275 -0.367 0.5 -0.374 0.274 0.365c0.156,0.207 0.449,0.249 0.656,0.094 0.1,-0.074 0.165,-0.185 0.183,-0.308l0.065 -0.453 0.618 0.088 -0.065 0.453c-0.036,0.256 0.142,0.493 0.398,0.53 0.123,0.018 0.248,-0.014 0.347,-0.089l0.366 -0.274 0.375 0.499 -0.366 0.275c-0.207,0.155 -0.249,0.449 -0.094,0.656 0.075,0.099 0.186,0.165 0.309,0.183l0.453 0.064 -0.089 0.618z"/>
  </g>
 </g>
</svg>
