<?xml version="1.0" encoding="UTF-8"?>
<!DOCTYPE svg PUBLIC "-//W3C//DTD SVG 1.1//EN" "http://www.w3.org/Graphics/SVG/1.1/DTD/svg11.dtd">
<!-- Creator: CorelDRAW 2018 (64 Bit) -->
<svg xmlns="http://www.w3.org/2000/svg" xml:space="preserve" width="80px" height="80px" version="1.1" style="shape-rendering:geometricPrecision; text-rendering:geometricPrecision; image-rendering:optimizeQuality; fill-rule:evenodd; clip-rule:evenodd"
viewBox="0 0 7.619 7.619"
 xmlns:xlink="http://www.w3.org/1999/xlink">
 <defs>
  <style type="text/css">
   <![CDATA[
    .fil0 {fill:#F05236}
    .fil1 {fill:#2A3F59}
   ]]>
  </style>
 </defs>
 <g id="Camada_x0020_1">
  <metadata id="CorelCorpID_0Corel-Layer"/>
  <g id="_1791137423152">
   <path class="fil0" d="M4.959 1.307c0.299,-0.299 0.299,-0.784 0,-1.083 -0.299,-0.299 -0.784,-0.299 -1.083,0 -0.299,0.299 -0.299,0.784 0,1.083 0.373,0.373 0.374,0.978 0.001,1.352 -0.303,0.294 -0.297,0.789 -0.001,1.084 0.299,0.299 0.784,0.299 1.083,0 0.373,-0.373 0.979,-0.373 1.353,0 0.299,0.299 0.784,0.299 1.083,0 0.299,-0.299 0.299,-0.784 0,-1.083 -0.299,-0.299 -0.784,-0.299 -1.083,0 -0.367,0.377 -0.984,0.369 -1.353,0.001 -0.374,-0.374 -0.374,-0.98 0,-1.354zm-0.14 -0.139c0.222,-0.222 0.222,-0.582 0,-0.804 -0.222,-0.222 -0.582,-0.222 -0.804,0 -0.222,0.222 -0.222,0.582 0,0.804 0.45,0.449 0.455,1.183 0.001,1.632 -0.221,0.218 -0.22,0.584 -0.001,0.804 0.222,0.222 0.582,0.222 0.804,0 0.451,-0.451 1.182,-0.451 1.633,0 0.222,0.222 0.581,0.222 0.803,0 0.222,-0.222 0.222,-0.582 0,-0.804 -0.221,-0.221 -0.582,-0.225 -0.802,-0.001 -0.446,0.452 -1.187,0.448 -1.634,0.001 -0.451,-0.451 -0.451,-1.182 0,-1.632zm-3.237 1.629c-0.223,0.223 -0.223,0.584 0,0.806 0.222,0.223 0.583,0.223 0.806,0 0.222,-0.222 0.222,-0.583 0,-0.806 -0.223,-0.222 -0.584,-0.222 -0.806,0zm2.434 2.434c-0.223,0.223 -0.223,0.584 0,0.806 0.222,0.223 0.583,0.223 0.806,0 0.222,-0.222 0.222,-0.583 0,-0.806 -0.223,-0.222 -0.584,-0.222 -0.806,0zm-2.574 -2.573c0.3,-0.3 0.786,-0.3 1.085,0 0.3,0.299 0.3,0.785 0,1.085 -0.299,0.299 -0.785,0.299 -1.085,0 -0.299,-0.3 -0.299,-0.786 0,-1.085zm2.434 2.434c0.3,-0.3 0.786,-0.3 1.085,0 0.3,0.299 0.3,0.785 0,1.085 -0.299,0.299 -0.785,0.299 -1.085,0 -0.299,-0.3 -0.299,-0.786 0,-1.085z"/>
   <path class="fil1" d="M2.66 4.959c-0.373,-0.374 -0.979,-0.374 -1.353,0 -0.299,0.299 -0.784,0.299 -1.083,0 -0.299,-0.299 -0.299,-0.784 0,-1.083 0.299,-0.299 0.783,-0.3 1.083,0 0.374,0.373 0.98,0.373 1.353,0 0.374,-0.374 0.374,-0.979 0,-1.354 -0.299,-0.299 -0.299,-0.783 0,-1.082 0.299,-0.299 0.784,-0.299 1.083,0 0.299,0.299 0.299,0.783 0,1.082 -0.374,0.374 -0.374,0.98 0,1.354 0.374,0.374 0.98,0.374 1.354,0 0.299,-0.299 0.783,-0.299 1.082,0 0.299,0.299 0.299,0.784 0,1.083 -0.299,0.299 -0.783,0.299 -1.082,0 -0.375,-0.373 -0.981,-0.374 -1.354,0 -0.373,0.373 -0.373,0.979 0,1.353 0.3,0.3 0.299,0.784 0,1.083 -0.299,0.299 -0.784,0.299 -1.083,0 -0.299,-0.299 -0.299,-0.784 0,-1.083 0.374,-0.374 0.374,-0.98 0,-1.353zm0.14 -0.14c0.451,0.451 0.451,1.182 0,1.633 -0.222,0.222 -0.222,0.581 0,0.803 0.222,0.222 0.582,0.222 0.804,0 0.222,-0.222 0.222,-0.581 0,-0.803 -0.451,-0.451 -0.451,-1.182 0,-1.633 0.45,-0.45 1.181,-0.45 1.632,0 0.222,0.222 0.581,0.223 0.804,0 0.222,-0.222 0.222,-0.582 0,-0.804 -0.222,-0.221 -0.582,-0.222 -0.804,0 -0.451,0.451 -1.182,0.451 -1.632,0 -0.451,-0.45 -0.451,-1.181 0,-1.632 0.222,-0.222 0.222,-0.582 0,-0.804 -0.222,-0.222 -0.582,-0.222 -0.804,0 -0.222,0.223 -0.222,0.582 0,0.804 0.45,0.451 0.451,1.182 0,1.632 -0.451,0.451 -1.182,0.451 -1.632,0 -0.223,-0.222 -0.582,-0.222 -0.804,0 -0.222,0.222 -0.222,0.582 0,0.804 0.222,0.222 0.582,0.222 0.804,0 0.45,-0.451 1.181,-0.451 1.632,0z"/>
  </g>
 </g>
</svg>
