<?xml version="1.0" encoding="UTF-8"?>
<!DOCTYPE svg PUBLIC "-//W3C//DTD SVG 1.1//EN" "http://www.w3.org/Graphics/SVG/1.1/DTD/svg11.dtd">
<!-- Creator: CorelDRAW 2018 (64 Bit) -->
<svg xmlns="http://www.w3.org/2000/svg" xml:space="preserve" width="16px" height="16px" version="1.1" style="shape-rendering:geometricPrecision; text-rendering:geometricPrecision; image-rendering:optimizeQuality; fill-rule:evenodd; clip-rule:evenodd"
viewBox="0 0 0.209 0.209"
 xmlns:xlink="http://www.w3.org/1999/xlink">
 <defs>
  <style type="text/css">
   <![CDATA[
    .fil0 {fill:#F05236}
   ]]>
  </style>
 </defs>
 <g id="Camada_x0020_1">
  <metadata id="CorelCorpID_0Corel-Layer"/>
  <path class="fil0" d="M0.026 0l0.156 0c0.015,0 0.027,0.012 0.027,0.026l0 0.156c0,0.015 -0.012,0.027 -0.027,0.027l-0.156 0c-0.014,0 -0.026,-0.012 -0.026,-0.027l0 -0.156c0,-0.014 0.012,-0.026 0.026,-0.026zm0.006 0.08l0 0.094 0.031 0 0 -0.094 -0.031 0zm0.08 0.013l0 0 0 -0.013 -0.031 0 0 0.094 0.031 0 0 -0.048c0,-0.009 0.001,-0.015 0.004,-0.017 0.004,-0.004 0.008,-0.006 0.012,-0.006l0.002 0c0.007,0 0.012,0.004 0.014,0.012 0.001,0.004 0.001,0.006 0.001,0.009l0 0.05 0.031 0 0 -0.051c0,-0.023 -0.007,-0.037 -0.022,-0.043 -0.005,-0.001 -0.01,-0.002 -0.014,-0.002 -0.012,0 -0.021,0.005 -0.028,0.015zm-0.063 -0.026c0.01,0 0.016,-0.007 0.016,-0.016 0,-0.011 -0.008,-0.015 -0.017,-0.016 -0.009,0 -0.015,0.003 -0.017,0.012 -0.003,0.013 0.005,0.02 0.018,0.02z"/>
 </g>
</svg>
